Advanced RGCAM example Usecases
…
listScenarios(examples.proj)

## [1] "Reference-filtered"

listQueries(examples.proj)

## [1] "CO2 concentrations"      "Climate forcing"        
## [3] "Global mean temperature" "GDP by region"          
## [5] "PPP GDP by region"       "Population by region"   
## [7] "Building floorspace"     "Land Allocation"

getQuery(examples.proj, "Land Allocation")

## # A tibble: 5,940 x 6
##    Units     scenario           region `land-allocation`  year value
##    <chr>     <chr>              <chr>  <chr>             <dbl> <dbl>
##  1 thous km2 Reference-filtered USA    CornAEZ07          1975  13.4
##  2 thous km2 Reference-filtered USA    CornAEZ07          1990  16.9
##  3 thous km2 Reference-filtered USA    CornAEZ07          2005  19.2
##  4 thous km2 Reference-filtered USA    CornAEZ07          2010  20.6
##  5 thous km2 Reference-filtered USA    CornAEZ07          2015  20.8
##  6 thous km2 Reference-filtered USA    CornAEZ07          2020  21.7
##  7 thous km2 Reference-filtered USA    CornAEZ07          2025  22.5
##  8 thous km2 Reference-filtered USA    CornAEZ07          2030  23.2
##  9 thous km2 Reference-filtered USA    CornAEZ07          2035  24.3
## 10 thous km2 Reference-filtered USA    CornAEZ07          2040  25.5
## # i 5,930 more rows
…
Generally using the add* methods provided should be sufficient for
most user needs but the package also makes available the underlying
methods that could be useful if a user wants to do something a little
bit different.

First runQuery is a S3 generic method that can run a
single query on either a local or remote database and returns a tibble.
It follows all of the same conventions as addScenario or
addSingleQuery since those are just using this method under
the hood.

runQuery(conn, luc_query_query, c(), c("USA"))

## # A tibble: 21,600 x 7
##    Units  scenario           region `land-use-change-emission`  year    value
##    <chr>  <chr>              <chr>  <chr>                      <dbl>    <dbl>
##  1 MtC/yr Reference-filtered USA    CornAEZ07                   1705 -0.00192
##  2 MtC/yr Reference-filtered USA    CornAEZ07                   1710 -0.00577
##  3 MtC/yr Reference-filtered USA    CornAEZ07                   1715 -0.00770
##  4 MtC/yr Reference-filtered USA    CornAEZ07                   1720 -0.00867
##  5 MtC/yr Reference-filtered USA    CornAEZ07                   1725 -0.00915
##  6 MtC/yr Reference-filtered USA    CornAEZ07                   1730 -0.00939
##  7 MtC/yr Reference-filtered USA    CornAEZ07                   1735 -0.00951
##  8 MtC/yr Reference-filtered USA    CornAEZ07                   1740 -0.00957
##  9 MtC/yr Reference-filtered USA    CornAEZ07                   1745 -0.00960
## 10 MtC/yr Reference-filtered USA    CornAEZ07                   1750 -0.00962
## # i 21,590 more rows
## # i 1 more variable: rundate <dttm>
…
## Warning in addQueryTable(examples.proj, co2_conc, "CO2 concentrations", :
## addQueryTable: query CO2 concentrations already exists for scenario
## Reference-filtered and noclobber is set.

# Now get Example in our list of scenarios
listScenarios(examples.proj)

## [1] "Reference-filtered" "Example"

# And the data for Example has been split out from Reference-filtered so that they can get
# retrieved individually from the project.
getQuery(examples.proj, "CO2 concentrations", "Example")

## # A tibble: 26 x 4
##    Units scenario  year value
##    <chr> <chr>    <dbl> <dbl>
##  1 PPM   Example   1975    0 
##  2 PPM   Example   1980  331.
##  3 PPM   Example   1985  338.
##  4 PPM   Example   1990  346.
##  5 PPM   Example   1995  355.
##  6 PPM   Example   2000  364.
##  7 PPM   Example   2005  373.
##  8 PPM   Example   2010  383.
##  9 PPM   Example   2015  394.
## 10 PPM   Example   2020  407.
## # i 16 more rows
…
## Warning: `group_by_()` was deprecated in dplyr 0.7.0.
## i Please use `group_by()` instead.
## i See vignette('programming') for more help
## Call `lifecycle::last_lifecycle_warnings()` to see where this warning was
## generated.

## Warning: `group_by_()` was deprecated in dplyr 0.7.0.
## i Please use `group_by()` instead.
## i See vignette('programming') for more help
## Call `lifecycle::last_lifecycle_warnings()` to see where this warning was
## generated.

getQuery(examples.proj, "Population by region")

## # A tibble: 44 x 5
##    Units scenario           region  year  value
##    <chr> <chr>              <chr>  <dbl>  <dbl>
##  1 thous Reference-filtered Global  1975 222133
##  2 thous Reference-filtered Global  1990 256971
##  3 thous Reference-filtered Global  2005 300712
##  4 thous Reference-filtered Global  2010 314242
##  5 thous Reference-filtered Global  2015 326649
##  6 thous Reference-filtered Global  2020 339508
##  7 thous Reference-filtered Global  2025 352372
##  8 thous Reference-filtered Global  2030 364622
##  9 thous Reference-filtered Global  2035 376039
## 10 thous Reference-filtered Global  2040 386598
## # i 34 more rows

# When running addSingleQuery or addQueryTable you simply need to provide the function
examples.proj <- addSingleQuery(conn, examples.proj, query_name, luc_query, c(), c(),
                                clobber=TRUE, transformations=add_global_sum)

## Warning: `group_by_()` was deprecated in dplyr 0.7.0.
## i Please use `group_by()` instead.
## i See vignette('programming') for more help
## Call `lifecycle::last_lifecycle_warnings()` to see where this warning was
## generated.

getQuery(examples.proj, query_name)

## # A tibble: 43,200 x 6
##    Units  scenario           region `land-use-change-emission`  year    value
##    <chr>  <chr>              <chr>  <chr>                      <dbl>    <dbl>
##  1 MtC/yr Reference-filtered Global CornAEZ07                   1705 -0.00192
##  2 MtC/yr Reference-filtered Global CornAEZ07                   1710 -0.00577
##  3 MtC/yr Reference-filtered Global CornAEZ07                   1715 -0.00770
##  4 MtC/yr Reference-filtered Global CornAEZ07                   1720 -0.00867
##  5 MtC/yr Reference-filtered Global CornAEZ07                   1725 -0.00915
##  6 MtC/yr Reference-filtered Global CornAEZ07                   1730 -0.00939
##  7 MtC/yr Reference-filtered Global CornAEZ07                   1735 -0.00951
##  8 MtC/yr Reference-filtered Global CornAEZ07                   1740 -0.00957
##  9 MtC/yr Reference-filtered Global CornAEZ07                   1745 -0.00960
## 10 MtC/yr Reference-filtered Global CornAEZ07                   1750 -0.00962
## # i 43,190 more rows
…
